Worksheet 6: Text Analysis
…
One of the most basic pre-processing techniques for textual data is to tokenize it. Tokenization is essentially splitting a phrase, sentence, paragraph, or an entire text document into smaller units, such as individual words or terms. Each of these smaller units are called tokens. The tokens could be words, numbers or punctuation marks but, for historians, its common to remove the numbers and punctuation too. To do this we’ll create a data frame where each row contains a single word with its metadata as unit of observation.

tidytext provides a function called unnest_tokens(). We can use this to convert our sotu_whole data frame into one that is tokenized. It takes three arguments:

* a tibble or data frame which contains the text
* the name of the newly created column that will contain the tokens
* the name of the column within the data frame which contains the text to be tokenized

tidy_sotu <- sotu_whole %>%
  unnest_tokens(word, text)

tidy_sotu

# A tibble: 1,988,203 × 8
       X president        year years_active party      sotu_type doc_id    word 
   <int> <chr>           <int> <chr>        <chr>      <chr>     <chr>     <chr>
 1    73 Abraham Lincoln  1861 1861-1865    Republican written   abraham-… fell…
 2    73 Abraham Lincoln  1861 1861-1865    Republican written   abraham-… citi…
 3    73 Abraham Lincoln  1861 1861-1865    Republican written   abraham-… of   
 4    73 Abraham Lincoln  1861 1861-1865    Republican written   abraham-… the  
 5    73 Abraham Lincoln  1861 1861-1865    Republican written   abraham-… sena…
 6    73 Abraham Lincoln  1861 1861-1865    Republican written   abraham-… and  
 7    73 Abraham Lincoln  1861 1861-1865    Republican written   abraham-… house
 8    73 Abraham Lincoln  1861 1861-1865    Republican written   abraham-… of   
 9    73 Abraham Lincoln  1861 1861-1865    Republican written   abraham-… repr…
10    73 Abraham Lincoln  1861 1861-1865    Republican written   abraham-… in   
# ℹ 1,988,193 more rows
…
head(sotu_trigrams$trigram)

[1] "fellow citizens of" "citizens of the"    "of the senate"     
[4] "the senate and"     "senate and house"   "and house of"      

Stopwords

Another crucial component of text analysis is removing stopwords. Stopwords are words like “I, he, she, of, the” that are common and don’t convey meaning. Because they are highly common they don’t tell us anything about the content of the text itself.

There are stopwords that come with the tidytext package.

stop_words

# A tibble: 1,149 × 2
   word        lexicon
   <chr>       <chr>  
 1 a           SMART  
 2 a's         SMART  
 3 able        SMART  
 4 about       SMART  
 5 above       SMART  
 6 according   SMART  
 7 accordingly SMART  
 8 across      SMART  
 9 actually    SMART  
10 after       SMART  
# ℹ 1,139 more rows

This is just one example of stopwords. You can find other lists such as stopwords in other languages or stopwords designed specifically for the 19th century. Its also possible you may want to edit the list of stopwords to include some of your own. For example, if we wanted to add the word, “America” to the stopwords list we could use add_row to do so:

stop_words_custom <- stop_words %>% add_row(word="America", lexicon="NA")

For now lets just remove the default stopwords. The easiest way to do that here is to do an anti-join. We join and return all rows from our table of tokens tidy_sotu where there are no matching values in our list of stopwords.

tidy_sotu_words <- tidy_sotu %>% 
  anti_join(stop_words)

Joining with `by = join_by(word)`

tidy_sotu_words

# A tibble: 787,851 × 8
       X president        year years_active party      sotu_type doc_id    word 
   <int> <chr>           <int> <chr>        <chr>      <chr>     <chr>     <chr>
 1    73 Abraham Lincoln  1861 1861-1865    Republican written   abraham-… fell…
 2    73 Abraham Lincoln  1861 1861-1865    Republican written   abraham-… citi…
 3    73 Abraham Lincoln  1861 1861-1865    Republican written   abraham-… sena…
 4    73 Abraham Lincoln  1861 1861-1865    Republican written   abraham-… house
 5    73 Abraham Lincoln  1861 1861-1865    Republican written   abraham-… repr…
 6    73 Abraham Lincoln  1861 1861-1865    Republican written   abraham-… midst
 7    73 Abraham Lincoln  1861 1861-1865    Republican written   abraham-… unpr…
 8    73 Abraham Lincoln  1861 1861-1865    Republican written   abraham-… poli…
 9    73 Abraham Lincoln  1861 1861-1865    Republican written   abraham-… trou…
10    73 Abraham Lincoln  1861 1861-1865    Republican written   abraham-… grat…
# ℹ 787,841 more rows

#another way to do this would be to filter by words NOT in the stop word list like this:  filter(!word %in% stop_words$word)

Stemming

The third common kind of pre-process is called word stemming. This process reduces a word to its root stem. So for example: fishing becomes fish, fished becomes fish, fishes becomes fish. You can easily see how this might be useful for capturing all forms of a word.

tidytext doesn’t have its own word stemming function. Instead we have to rely on the functions provided by hunspell or SnowballC. I prefer SnowballC. You may need to install it before running the below code.

library(SnowballC)
tidy_sotu_words %>%
        mutate(word_stem = wordStem(word))

# A tibble: 787,851 × 9
       X president      year years_active party sotu_type doc_id word  word_stem
   <int> <chr>         <int> <chr>        <chr> <chr>     <chr>  <chr> <chr>    
 1    73 Abraham Linc…  1861 1861-1865    Repu… written   abrah… fell… fellow   
 2    73 Abraham Linc…  1861 1861-1865    Repu… written   abrah… citi… citizen  
 3    73 Abraham Linc…  1861 1861-1865    Repu… written   abrah… sena… senat    
 4    73 Abraham Linc…  1861 1861-1865    Repu… written   abrah… house hous     
 5    73 Abraham Linc…  1861 1861-1865    Repu… written   abrah… repr… repres   
 6    73 Abraham Linc…  1861 1861-1865    Repu… written   abrah… midst midst    
 7    73 Abraham Linc…  1861 1861-1865    Repu… written   abrah… unpr… unpreced 
 8    73 Abraham Linc…  1861 1861-1865    Repu… written   abrah… poli… polit    
 9    73 Abraham Linc…  1861 1861-1865    Repu… written   abrah… trou… troubl   
10    73 Abraham Linc…  1861 1861-1865    Repu… written   abrah… grat… gratitud 
# ℹ 787,841 more rows
…
Joining with `by = join_by(word)`

Before we move forward, take a minute a describe the chunk of code you just ran. What does each section do and how does it reflect the workflow for a topic modeling project? What are the important steps that are unique to topic modeling?

The first 8 lines of the code above are included under the “acquiring your corpus” umbrella. The first line converts sotu_meta into a data frame. The second line creates the file path - remember this step is unique in this case becuase the dataset is already included in R. The third line reads in the data. The final chunk of ‘acquiring corpus’ sorts the metadata and combines it with the text. Converting it to tibble allows for better screen viewing. The second chunk is “preprocessing.” It converts the texts into single word n-grams and removes stopwords.

The most basic kind of analysis we might be interested in doing is counting words. We can do that easily using the count() function:

tidy_sotu %>%
  count(word, sort = TRUE)

# A tibble: 29,897 × 2
   word           n
   <chr>      <int>
 1 government  7597
 2 congress    5808
 3 united      5156
 4 people      4298
 5 country     3641
 6 public      3419
 7 time        3188
 8 american    2988
 9 war         2976
10 world       2633
# ℹ 29,887 more rows

Now we know that the most used word in state of the union speeches is government. But what if we wanted to look at when presidents use the words war versus the word peace?

tidy_sotu %>%
  filter(word %in% c("war", "peace")) %>% 
  count(year, word)

# A tibble: 442 × 3
    year word      n
   <int> <chr> <int>
 1  1790 peace     3
 2  1790 war       4
 3  1791 peace     4
 4  1791 war       1
 5  1792 peace     5
 6  1792 war       2
 7  1793 peace     6
 8  1793 war       4
 9  1794 peace     3
10  1794 war       1
# ℹ 432 more rows
…
We also might want to ask about the average length of each president’s state of the union address. Who had the longest speech and who had the shortest?

tidy_sotu %>%
  count(president, doc_id)  %>% 
  group_by(president) %>% 
  summarize(avg_words = mean(n)) %>% 
  arrange(desc(avg_words))

# A tibble: 42 × 2
   president           avg_words
   <chr>                   <dbl>
 1 William Howard Taft     9126.
 2 William McKinley        7797 
 3 Jimmy Carter            7673.
 4 Theodore Roosevelt      7356 
 5 James K. Polk           6920.
 6 Grover Cleveland        5736.
 7 James Buchanan          5409 
 8 Benjamin Harrison       5308.
 9 Rutherford B. Hayes     4411 
10 Martin Van Buren        4286.
# ℹ 32 more rows
…
The stop words are calibrated based on our modern vocabulary! Modern speeches are shorter becuase more words were ommitted.

Filter the dataset to address this discrepancy and the recreate these statistics:

sotu_nostop <- sotu_whole %>%
  unnest_tokens(word, text)

sotu_nostop %>%
  count(president, doc_id)  %>% 
  group_by(president) %>% 
  summarize(avg_words = mean(n)) %>% 
  arrange(desc(avg_words))

# A tibble: 42 × 2
   president           avg_words
   <chr>                   <dbl>
 1 William Howard Taft    22689 
 2 Theodore Roosevelt     19741 
 3 William McKinley       18648.
 4 James K. Polk          18052.
 5 Jimmy Carter           16076.
 6 James Buchanan         14136 
 7 Grover Cleveland       14027.
 8 Benjamin Harrison      13668 
 9 Martin Van Buren       11365.
10 Rutherford B. Hayes    10935.
# ℹ 32 more rows
…
Tf-idf measures how important a word is within a corpus by scaling term frequency per document according to the inverse of the term’s document frequency (number of documents within the corpus in which the term appears divided by the number of documents). The tf–idf value increases proportionally to the number of times a word appears in the document and is offset by the number of documents in the corpus that contain the word, which helps to adjust for the fact that some words appear more frequently in general.

Don’t worry too much about how tf-idf is calculated. But if you feel like you are a bit lost and want to understand the specifics - I recommend reading the tf-idf wikipedia page and this blog post from Learn Data Science.

We’ll calculate tf-idf in the next code chunk but lets talk for a second about what that number will represent. It will be:

* lower for words that appear frequently in many documents of the corpus, and lowest              when the word occurs in virtually all documents.
* higher for words that appear frequently in just a few documents of the corpus,                  this lending high discriminatory power to those few documents.

Luckily, tidytext provides a function for calculating tf-idf. To calculate tf-idf the function needs a list of every word in every document and the count. Like this:

tidy_sotu %>%
  count(doc_id, word, sort = TRUE)  

# A tibble: 358,186 × 3
   doc_id                       word               n
   <chr>                        <chr>          <int>
 1 harry-s-truman-1946.txt      dollars          207
 2 jimmy-carter-1980b.txt       congress         204
 3 harry-s-truman-1946.txt      war              201
 4 william-howard-taft-1910.txt government       164
 5 james-k-polk-1846.txt        mexico           158
 6 richard-m-nixon-1974b.txt    federal          141
 7 harry-s-truman-1946.txt      million          138
 8 harry-s-truman-1946.txt      fiscal           129
 9 jimmy-carter-1981.txt        administration   129
10 william-howard-taft-1912.txt government       129
# ℹ 358,176 more rows
…
The resulting data frame has 3 columns: term frequency (tf), inverse document frequency (idf) and Tf-idf (tf_idf).

Lets look at what the words with the highest tf-idf score are.

sotu.tf.idf %>% arrange(desc(tf_idf))

# A tibble: 358,186 × 6
   doc_id                        word          n      tf   idf tf_idf
   <chr>                         <chr>     <int>   <dbl> <dbl>  <dbl>
 1 donald-trump-2019.txt         applause    104 0.0424   2.22 0.0942
 2 lyndon-b-johnson-1966.txt     vietnam      32 0.0152   2.35 0.0356
 3 jimmy-carter-1980a.txt        soviet       31 0.0218   1.49 0.0325
 4 george-w-bush-2003.txt        hussein      19 0.00811  3.87 0.0314
 5 george-w-bush-2003.txt        saddam       19 0.00811  3.69 0.0299
 6 franklin-d-roosevelt-1943.txt 1942         13 0.00758  3.87 0.0294
 7 dwight-d-eisenhower-1961.txt  1953         23 0.00747  3.87 0.0289
 8 john-adams-1800.txt           gentlemen     8 0.0153   1.77 0.0270
 9 benjamin-harrison-1892.txt    1892         40 0.00741  3.53 0.0262
10 franklin-d-roosevelt-1942.txt hitler        7 0.00527  4.79 0.0252
# ℹ 358,176 more rows

Pick a president who served more than one term. Filter the dataset and generate both raw word counts and tf-idf scores for that president. What words are most significant in each method? Why and what does that tell you about that president?

sotu.tf.idf.TeddyRoosevelt <- tidy_sotu %>% filter (president == "Theodore Roosevelt") %>%
  count(doc_id, word, sort = TRUE)  %>%  
  bind_tf_idf(word, doc_id, n) 

sotu.tf.idf.TeddyRoosevelt %>% arrange(desc(tf_idf))

# A tibble: 22,967 × 6
   doc_id                      word           n      tf   idf  tf_idf
   <chr>                       <chr>      <int>   <dbl> <dbl>   <dbl>
 1 theodore-roosevelt-1903.txt colombia      28 0.00466 0.981 0.00457
 2 theodore-roosevelt-1903.txt colombian     13 0.00216 2.08  0.00449
 3 theodore-roosevelt-1905.txt domingo       18 0.00197 2.08  0.00410
 4 theodore-roosevelt-1905.txt santo         18 0.00197 2.08  0.00410
 5 theodore-roosevelt-1906.txt colored       14 0.00159 2.08  0.00332
 6 theodore-roosevelt-1906.txt tax           29 0.00330 0.981 0.00324
 7 theodore-roosevelt-1903.txt granada        9 0.00150 2.08  0.00311
 8 theodore-roosevelt-1902.txt soundings      5 0.00140 2.08  0.00291
 9 theodore-roosevelt-1903.txt revolution    24 0.00399 0.693 0.00277
10 theodore-roosevelt-1902.txt cable         14 0.00391 0.693 0.00271
# ℹ 22,957 more rows

#Theodore Roosevelt was talking about Columbia not more than anything else, but significantly more than his fellow presidents. It is not surprising that "tax" and "judges" are used frequently by Roosevelt, but the lower tf-idf score is also not surprising - as these are terms we suspect to hear from the president. 

sotu.tf.idf.Lincoln <- tidy_sotu %>% filter (president == "Abraham Lincoln") %>%
  count(doc_id, word, sort = TRUE)  %>%  
  bind_tf_idf(word, doc_id, n) 

sotu.tf.idf.Lincoln %>% arrange(desc(tf_idf))

# A tibble: 5,766 × 6
   doc_id                   word              n      tf   idf  tf_idf
   <chr>                    <chr>         <int>   <dbl> <dbl>   <dbl>
 1 abraham-lincoln-1861.txt capital          16 0.00621 0.693 0.00430
 2 abraham-lincoln-1861.txt circuit           8 0.00310 1.39  0.00430
 3 abraham-lincoln-1862.txt forever           9 0.00291 1.39  0.00404
 4 abraham-lincoln-1861.txt hired             7 0.00272 1.39  0.00376
 5 abraham-lincoln-1861.txt judges            7 0.00272 1.39  0.00376
 6 abraham-lincoln-1862.txt bonds             8 0.00259 1.39  0.00359
 7 abraham-lincoln-1864.txt pensioners        6 0.00250 1.39  0.00347
 8 abraham-lincoln-1863.txt consuls           5 0.00209 1.39  0.00289
 9 abraham-lincoln-1863.txt international     5 0.00209 1.39  0.00289
10 abraham-lincoln-1863.txt oath              5 0.00209 1.39  0.00289
# ℹ 5,756 more rows
…
#IGNORE. this is really just a test. the following tf_idf will be more relevant 
bb.tf.idf <- bb_whole_tidy %>%
  count(R_P_E, word, sort = TRUE)  %>%  
  bind_tf_idf(word, R_P_E, n) 

bb.tf.idf %>% arrange(desc(tf_idf))

# A tibble: 19,048 × 6
   R_P_E word        n      tf   idf  tf_idf
   <chr> <chr>   <int>   <dbl> <dbl>   <dbl>
 1 R     indians    92 0.00995 0.288 0.00286
 2 R     reedy      15 0.00162 1.39  0.00225
 3 R     pg         66 0.00714 0.288 0.00205
 4 P     pg        191 0.00638 0.288 0.00183
 5 E     pg        253 0.00577 0.288 0.00166
 6 P     indians   152 0.00507 0.288 0.00146
 7 R     indian     45 0.00487 0.288 0.00140
 8 E     indian    201 0.00458 0.288 0.00132
 9 E     life      189 0.00431 0.288 0.00124
10 R     horse      38 0.00411 0.288 0.00118
# ℹ 19,038 more rows
…
#trying to find the words most notably associated with promotion (looking at tf_idf in results - will be in descending order)
bb.tf.idf.promotion <- bb_whole_tidy %>% filter (R_P_E == "P") %>% #subset data to just pull promotion 
  count(Filename...3, word, sort = TRUE)  %>%  
  bind_tf_idf(word, Filename...3, n) 

bb.tf.idf.promotion %>% arrange(desc(tf_idf))

# A tibble: 23,876 × 6
   Filename...3                          word             n     tf   idf tf_idf
   <chr>                                 <chr>        <int>  <dbl> <dbl>  <dbl>
 1 ElkTruth-8-28-14p.2-second.txt        advertisment     1 0.111   5.68  0.632
 2 DailyWabashExpress-5-24-83.txt        guy              2 0.105   5.68  0.598
 3 FtWayneGazette-7-6-01.txt             date             2 0.143   3.38  0.483
 4 FtWayneSentinel-7-13-07.txt           ariadne          2 0.0833  5.68  0.474
 5 IndianapolisNews-3-2-83.txt           bloomfield       2 0.0833  5.68  0.474
 6 LogansportChronicle-6-9-83.txt        tamed            1 0.0833  5.68  0.474
 7 MarshallCountyIndependent-7-12-01.txt utica            1 0.0833  5.68  0.474
 8 IndianapolisNews-9-30-85.txt          graphic          1 0.125   3.74  0.467
 9 IndianapolisStar-9-15-14.txt          26               1 0.125   3.74  0.467
10 FtWayneSentinel-7-12-01.txt           stubbs           2 0.08    5.68  0.455
# ℹ 23,866 more rows

#finding words most strongly associated with reception (looking at tf_idf in results - will be in descending order)
bb.tf.idf.reception <- bb_whole_tidy %>% filter (R_P_E == "R") %>% #subset data to just pull reception 
  count(Filename...3, word, sort = TRUE)  %>%  
  bind_tf_idf(word, Filename...3, n) 

bb.tf.idf.reception %>% arrange(desc(tf_idf))

# A tibble: 7,343 × 6
   Filename...3                               word         n     tf   idf tf_idf
   <chr>                                      <chr>    <int>  <dbl> <dbl>  <dbl>
 1 IndianapolisMonroesIronCladAge-6-16-83.txt tickets      2 0.105   4.50  0.474
 2 FtWayneSentinel-7-13-01.txt                delight…     1 0.0909  4.50  0.409
 3 FtWayneSentinel-7-13-01.txt                yorkers      1 0.0909  4.50  0.409
 4 FtWayneJournalGazette-7-18-07.txt          union        2 0.105   3.81  0.401
 5 IndianapolisMonroesIronCladAge-6-16-83.txt collect…     2 0.105   3.81  0.401
 6 CrawfJournal7-31-09p4.txt                  cruelty      2 0.0769  4.50  0.346
 7 LogansportJournal-5-4-85.txt               fly          1 0.0769  4.50  0.346
 8 LogansportJournal-5-4-85.txt               stimula…     1 0.0769  4.50  0.346
 9 FtWayneJournalGazette-7-18-07.txt          madison      2 0.105   3.11  0.328
10 ElkhartDailyReview-8-14-08.txt             blown        2 0.0714  4.50  0.321
# ℹ 7,333 more rows
…
